{
  "images" : [
    {
      "idiom" : "universal",
      "scale" : "1x"
    },
    {
      "idiom" : "universal",
      "filename" : "splash_screen 640x1136.png",
      "scale" : "2x"
    },
    {
      "idiom" : "universal",
      "filename" : "splash_screen 1242x2208.png",
      "scale" : "3x"
    }
  ],
  "info" : {
    "version" : 1,
    "author" : "xcode"
  }
}